Cyclistic Company: A Case Study between Annual Member vs. Casual Rider 2021
…
row_january <- nrow(january_df)
as_data_frame(january_df)

## Warning: `as_data_frame()` was deprecated in tibble 2.0.0.
## Please use `as_tibble()` instead.
## The signature and semantics have changed, see `?as_tibble`.

## # A tibble: 96,834 x 13
##    ride_id          rideable_type started_at          ended_at           
##    <chr>            <chr>         <dttm>              <dttm>             
##  1 E19E6F1B8D4C42ED electric_bike 2021-01-23 16:14:19 2021-01-23 16:24:44
##  2 DC88F20C2C55F27F electric_bike 2021-01-27 18:43:08 2021-01-27 18:47:12
##  3 EC45C94683FE3F27 electric_bike 2021-01-21 22:35:54 2021-01-21 22:37:14
##  4 4FA453A75AE377DB electric_bike 2021-01-07 13:31:13 2021-01-07 13:42:55
##  5 BE5E8EB4E7263A0B electric_bike 2021-01-23 02:24:02 2021-01-23 02:24:45
##  6 5D8969F88C773979 electric_bike 2021-01-09 14:24:07 2021-01-09 15:17:54
##  7 09275CC10F854E9E electric_bike 2021-01-04 05:05:04 2021-01-04 05:10:39
##  8 DF7A32A217AEFB14 electric_bike 2021-01-14 15:07:00 2021-01-14 15:13:40
##  9 C2EFC62379EB716C electric_bike 2021-01-09 09:57:55 2021-01-09 10:00:26
## 10 B9F73448DFBE0D45 classic_bike  2021-01-24 19:15:38 2021-01-24 19:22:51
## # ... with 96,824 more rows, and 9 more variables: start_station_name <chr>,
## #   start_station_id <chr>, end_station_name <chr>, end_station_id <chr>,
## #   start_lat <dbl>, start_lng <dbl>, end_lat <dbl>, end_lng <dbl>,
## #   member_casual <chr>
…
row_february <- nrow(february_df)
as_data_frame(february_df)

## # A tibble: 49,622 x 13
##    ride_id          rideable_type started_at          ended_at           
##    <chr>            <chr>         <dttm>              <dttm>             
##  1 89E7AA6C29227EFF classic_bike  2021-02-12 16:14:56 2021-02-12 16:21:43
##  2 0FEFDE2603568365 classic_bike  2021-02-14 17:52:38 2021-02-14 18:12:09
##  3 E6159D746B2DBB91 electric_bike 2021-02-09 19:10:18 2021-02-09 19:19:10
##  4 B32D3199F1C2E75B classic_bike  2021-02-02 17:49:41 2021-02-02 17:54:06
##  5 83E463F23575F4BF electric_bike 2021-02-23 15:07:23 2021-02-23 15:22:37
##  6 BDAA7E3494E8D545 electric_bike 2021-02-24 15:43:33 2021-02-24 15:49:05
##  7 A772742351171257 classic_bike  2021-02-01 17:47:42 2021-02-01 17:48:33
##  8 295476889D9B79F8 classic_bike  2021-02-11 18:33:53 2021-02-11 18:35:09
##  9 362087194BA4CC9A classic_bike  2021-02-27 15:13:39 2021-02-27 15:36:36
## 10 21630F715038CCB0 classic_bike  2021-02-20 08:59:42 2021-02-20 09:17:04
## # ... with 49,612 more rows, and 9 more variables: start_station_name <chr>,
## #   start_station_id <chr>, end_station_name <chr>, end_station_id <chr>,
## #   start_lat <dbl>, start_lng <dbl>, end_lat <dbl>, end_lng <dbl>,
## #   member_casual <chr>
…
row_march <- nrow(march_df)
as_data_frame(march_df)

## # A tibble: 228,496 x 13
##    ride_id          rideable_type started_at          ended_at           
##    <chr>            <chr>         <dttm>              <dttm>             
##  1 CFA86D4455AA1030 classic_bike  2021-03-16 08:32:30 2021-03-16 08:36:34
##  2 30D9DC61227D1AF3 classic_bike  2021-03-28 01:26:28 2021-03-28 01:36:55
##  3 846D87A15682A284 classic_bike  2021-03-11 21:17:29 2021-03-11 21:33:53
##  4 994D05AA75A168F2 classic_bike  2021-03-11 13:26:42 2021-03-11 13:55:41
##  5 DF7464FBE92D8308 classic_bike  2021-03-21 09:09:37 2021-03-21 09:27:33
##  6 CEBA8516FD17F8D8 classic_bike  2021-03-20 11:08:47 2021-03-20 11:29:39
##  7 297268586B79588B classic_bike  2021-03-20 14:10:41 2021-03-20 14:22:13
##  8 F39301858B6077DD electric_bike 2021-03-23 07:56:51 2021-03-23 08:05:50
##  9 D297F199D875BABE electric_bike 2021-03-31 15:31:19 2021-03-31 15:35:58
## 10 36B877141175ED7E classic_bike  2021-03-11 17:37:37 2021-03-11 17:52:44
## # ... with 228,486 more rows, and 9 more variables: start_station_name <chr>,
## #   start_station_id <chr>, end_station_name <chr>, end_station_id <chr>,
## #   start_lat <dbl>, start_lng <dbl>, end_lat <dbl>, end_lng <dbl>,
## #   member_casual <chr>
…
row_april <- nrow(april_df)
as_data_frame(april_df)

## # A tibble: 337,230 x 13
##    ride_id          rideable_type started_at          ended_at           
##    <chr>            <chr>         <dttm>              <dttm>             
##  1 6C992BD37A98A63F classic_bike  2021-04-12 18:25:36 2021-04-12 18:56:55
##  2 1E0145613A209000 docked_bike   2021-04-27 17:27:11 2021-04-27 18:31:29
##  3 E498E15508A80BAD docked_bike   2021-04-03 12:42:45 2021-04-07 11:40:24
##  4 1887262AD101C604 classic_bike  2021-04-17 09:17:42 2021-04-17 09:42:48
##  5 C123548CAB2A32A5 docked_bike   2021-04-03 12:42:25 2021-04-03 14:13:42
##  6 097E76F3651B1AC1 classic_bike  2021-04-25 18:43:18 2021-04-25 18:43:59
##  7 53C38EB01E6FA5C4 classic_bike  2021-04-03 16:28:21 2021-04-03 16:29:47
##  8 D53AC014EFD6E2BA electric_bike 2021-04-06 16:35:06 2021-04-06 17:00:56
##  9 6E2F7CA1FA9E0AFB classic_bike  2021-04-12 15:22:54 2021-04-12 16:15:48
## 10 04218447AAC80BD1 classic_bike  2021-04-24 15:04:55 2021-04-24 15:06:16
## # ... with 337,220 more rows, and 9 more variables: start_station_name <chr>,
## #   start_station_id <chr>, end_station_name <chr>, end_station_id <chr>,
## #   start_lat <dbl>, start_lng <dbl>, end_lat <dbl>, end_lng <dbl>,
## #   member_casual <chr>
…
as_data_frame(may_df)

## # A tibble: 531,633 x 13
##    ride_id          rideable_type started_at          ended_at           
##    <chr>            <chr>         <dttm>              <dttm>             
##  1 C809ED75D6160B2A electric_bike 2021-05-30 11:58:15 2021-05-30 12:10:39
##  2 DD59FDCE0ACACAF3 electric_bike 2021-05-30 11:29:14 2021-05-30 12:14:09
##  3 0AB83CB88C43EFC2 electric_bike 2021-05-30 14:24:01 2021-05-30 14:25:13
##  4 7881AC6D39110C60 electric_bike 2021-05-30 14:25:51 2021-05-30 14:41:04
##  5 853FA701B4582BAF electric_bike 2021-05-30 18:15:39 2021-05-30 18:22:32
##  6 F5E63DFD96B2A737 electric_bike 2021-05-30 11:33:41 2021-05-30 11:57:17
##  7 C884951E36656727 electric_bike 2021-05-30 10:51:37 2021-05-30 11:06:20
##  8 48B60B250FE75AF9 electric_bike 2021-05-05 13:57:03 2021-05-05 14:14:58
##  9 E3D0CC2FE1359880 electric_bike 2021-05-05 11:31:26 2021-05-05 11:34:03
## 10 4382735758ABF2CE electric_bike 2021-05-04 19:51:05 2021-05-04 20:17:26
## # ... with 531,623 more rows, and 9 more variables: start_station_name <chr>,
## #   start_station_id <chr>, end_station_name <chr>, end_station_id <chr>,
## #   start_lat <dbl>, start_lng <dbl>, end_lat <dbl>, end_lng <dbl>,
## #   member_casual <chr>
…
as_data_frame(june_df)

## # A tibble: 729,595 x 13
##    ride_id          rideable_type started_at          ended_at           
##    <chr>            <chr>         <dttm>              <dttm>             
##  1 99FEC93BA843FB20 electric_bike 2021-06-13 14:31:28 2021-06-13 14:34:11
##  2 06048DCFC8520CAF electric_bike 2021-06-04 11:18:02 2021-06-04 11:24:19
##  3 9598066F68045DF2 electric_bike 2021-06-04 09:49:35 2021-06-04 09:55:34
##  4 B03C0FE48C412214 electric_bike 2021-06-03 19:56:05 2021-06-03 20:21:55
##  5 B9EEA89F8FEE73B7 electric_bike 2021-06-04 14:05:51 2021-06-04 14:09:59
##  6 62B943CEAAA420BA electric_bike 2021-06-03 19:32:01 2021-06-03 19:38:46
##  7 7E2546FBA79C46EE electric_bike 2021-06-10 16:30:10 2021-06-10 16:36:21
##  8 3DDF3BBF6C4C3C89 electric_bike 2021-06-10 17:00:30 2021-06-10 17:06:48
##  9 2608805637155AB6 electric_bike 2021-06-10 12:46:16 2021-06-10 12:55:02
## 10 AF529C946F28ED42 electric_bike 2021-06-23 17:57:29 2021-06-23 18:06:40
## # ... with 729,585 more rows, and 9 more variables: start_station_name <chr>,
## #   start_station_id <chr>, end_station_name <chr>, end_station_id <chr>,
## #   start_lat <dbl>, start_lng <dbl>, end_lat <dbl>, end_lng <dbl>,
## #   member_casual <chr>
…
as_data_frame(july_df)

## # A tibble: 822,410 x 13
##    ride_id          rideable_type started_at          ended_at           
##    <chr>            <chr>         <dttm>              <dttm>             
##  1 0A1B623926EF4E16 docked_bike   2021-07-02 14:44:36 2021-07-02 15:19:58
##  2 B2D5583A5A5E76EE classic_bike  2021-07-07 16:57:42 2021-07-07 17:16:09
##  3 6F264597DDBF427A classic_bike  2021-07-25 11:30:55 2021-07-25 11:48:45
##  4 379B58EAB20E8AA5 classic_bike  2021-07-08 22:08:30 2021-07-08 22:23:32
##  5 6615C1E4EB08E8FB electric_bike 2021-07-28 16:08:06 2021-07-28 16:27:09
##  6 62DC2B32872F9BA8 electric_bike 2021-07-29 17:09:08 2021-07-29 17:15:00
##  7 4BBB6E80E6A2A16D classic_bike  2021-07-28 16:51:47 2021-07-28 17:03:45
##  8 22CA03D32C6BB094 classic_bike  2021-07-03 12:44:50 2021-07-03 12:52:55
##  9 61F0D07D1EEE72EE classic_bike  2021-07-02 18:18:22 2021-07-02 18:38:21
## 10 09B4551386A8410E classic_bike  2021-07-29 21:54:05 2021-07-29 22:07:26
## # ... with 822,400 more rows, and 9 more variables: start_station_name <chr>,
## #   start_station_id <chr>, end_station_name <chr>, end_station_id <chr>,
## #   start_lat <dbl>, start_lng <dbl>, end_lat <dbl>, end_lng <dbl>,
## #   member_casual <chr>
…
as_data_frame(august_df)

## # A tibble: 804,352 x 13
##    ride_id          rideable_type started_at          ended_at           
##    <chr>            <chr>         <dttm>              <dttm>             
##  1 99103BB87CC6C1BB electric_bike 2021-08-10 17:15:49 2021-08-10 17:22:44
##  2 EAFCCCFB0A3FC5A1 electric_bike 2021-08-10 17:23:14 2021-08-10 17:39:24
##  3 9EF4F46C57AD234D electric_bike 2021-08-21 02:34:23 2021-08-21 02:50:36
##  4 5834D3208BFAF1DA electric_bike 2021-08-21 06:52:55 2021-08-21 07:08:13
##  5 CD825CB87ED1D096 electric_bike 2021-08-19 11:55:29 2021-08-19 12:04:11
##  6 612F12C94A964F3E electric_bike 2021-08-19 12:41:12 2021-08-19 12:47:47
##  7 C7435946FDFFA9B7 electric_bike 2021-08-19 12:21:50 2021-08-19 12:37:31
##  8 C67017767EED2251 electric_bike 2021-08-13 14:52:35 2021-08-13 14:58:16
##  9 ABC4532F2B4983AB electric_bike 2021-08-17 18:23:55 2021-08-17 18:24:13
## 10 82437E52DC3B9A8A electric_bike 2021-08-04 12:50:53 2021-08-04 13:08:20
## # ... with 804,342 more rows, and 9 more variables: start_station_name <chr>,
## #   start_station_id <chr>, end_station_name <chr>, end_station_id <chr>,
## #   start_lat <dbl>, start_lng <dbl>, end_lat <dbl>, end_lng <dbl>,
## #   member_casual <chr>
…
as_data_frame(september_df)

## # A tibble: 756,147 x 13
##    ride_id          rideable_type started_at          ended_at           
##    <chr>            <chr>         <dttm>              <dttm>             
##  1 9DC7B962304CBFD8 electric_bike 2021-09-28 16:07:10 2021-09-28 16:09:54
##  2 F930E2C6872D6B32 electric_bike 2021-09-28 14:24:51 2021-09-28 14:40:05
##  3 6EF72137900BB910 electric_bike 2021-09-28 00:20:16 2021-09-28 00:23:57
##  4 78D1DE133B3DBF55 electric_bike 2021-09-28 14:51:17 2021-09-28 15:00:06
##  5 E03D4ACDCAEF6E00 electric_bike 2021-09-28 09:53:12 2021-09-28 10:03:44
##  6 346DE323A2677DC0 electric_bike 2021-09-28 01:53:18 2021-09-28 02:00:02
##  7 558CE7087B42D8DB electric_bike 2021-09-28 07:15:56 2021-09-28 07:38:25
##  8 3EF7CB1851930A1F electric_bike 2021-09-28 11:17:00 2021-09-28 11:40:17
##  9 1F9A9A6BA4C2F82E electric_bike 2021-09-27 19:57:09 2021-09-27 20:09:08
## 10 CAA3791DE7300B8E electric_bike 2021-09-28 11:01:26 2021-09-28 11:22:56
## # ... with 756,137 more rows, and 9 more variables: start_station_name <chr>,
## #   start_station_id <chr>, end_station_name <chr>, end_station_id <chr>,
## #   start_lat <dbl>, start_lng <dbl>, end_lat <dbl>, end_lng <dbl>,
## #   member_casual <chr>
…
as_data_frame(october_df)

## # A tibble: 631,226 x 13
##    ride_id          rideable_type started_at          ended_at           
##    <chr>            <chr>         <dttm>              <dttm>             
##  1 620BC6107255BF4C electric_bike 2021-10-22 12:46:42 2021-10-22 12:49:50
##  2 4471C70731AB2E45 electric_bike 2021-10-21 09:12:37 2021-10-21 09:14:14
##  3 26CA69D43D15EE14 electric_bike 2021-10-16 16:28:39 2021-10-16 16:36:26
##  4 362947F0437E1514 electric_bike 2021-10-16 16:17:48 2021-10-16 16:19:03
##  5 BB731DE2F2EC51C5 electric_bike 2021-10-20 23:17:54 2021-10-20 23:26:10
##  6 7176307BBC097313 electric_bike 2021-10-21 16:57:37 2021-10-21 17:11:58
##  7 E965A041511793A0 electric_bike 2021-10-21 17:46:38 2021-10-21 17:49:19
##  8 E41D986E83D7B7CC electric_bike 2021-10-20 23:30:13 2021-10-20 23:38:34
##  9 E189D96E36E6FDFD electric_bike 2021-10-21 18:17:00 2021-10-21 18:24:28
## 10 17019B8A4C753A83 electric_bike 2021-10-06 18:47:40 2021-10-06 18:56:09
## # ... with 631,216 more rows, and 9 more variables: start_station_name <chr>,
## #   start_station_id <chr>, end_station_name <chr>, end_station_id <chr>,
## #   start_lat <dbl>, start_lng <dbl>, end_lat <dbl>, end_lng <dbl>,
## #   member_casual <chr>
…
as_data_frame(november_df)

## # A tibble: 359,978 x 13
##    ride_id          rideable_type started_at          ended_at           
##    <chr>            <chr>         <dttm>              <dttm>             
##  1 7C00A93E10556E47 electric_bike 2021-11-27 13:27:38 2021-11-27 13:46:38
##  2 90854840DFD508BA electric_bike 2021-11-27 13:38:25 2021-11-27 13:56:10
##  3 0A7D10CDD144061C electric_bike 2021-11-26 22:03:34 2021-11-26 22:05:56
##  4 2F3BE33085BCFF02 electric_bike 2021-11-27 09:56:49 2021-11-27 10:01:50
##  5 D67B4781A19928D4 electric_bike 2021-11-26 19:09:28 2021-11-26 19:30:41
##  6 02F85C2C3C5F7D46 electric_bike 2021-11-26 18:34:07 2021-11-26 18:52:49
##  7 EF780B807EF7835A electric_bike 2021-11-27 13:31:12 2021-11-27 13:37:12
##  8 17069CC749126036 electric_bike 2021-11-27 14:33:56 2021-11-27 14:34:38
##  9 93FC4662BDC5C061 electric_bike 2021-11-27 09:14:33 2021-11-27 09:19:36
## 10 B06B064398A360B3 electric_bike 2021-11-27 16:13:31 2021-11-27 16:22:50
## # ... with 359,968 more rows, and 9 more variables: start_station_name <chr>,
## #   start_station_id <chr>, end_station_name <chr>, end_station_id <chr>,
## #   start_lat <dbl>, start_lng <dbl>, end_lat <dbl>, end_lng <dbl>,
## #   member_casual <chr>
…
as_data_frame(december_df)

## # A tibble: 247,540 x 13
##    ride_id          rideable_type started_at          ended_at           
##    <chr>            <chr>         <dttm>              <dttm>             
##  1 46F8167220E4431F electric_bike 2021-12-07 15:06:07 2021-12-07 15:13:42
##  2 73A77762838B32FD electric_bike 2021-12-11 03:43:29 2021-12-11 04:10:23
##  3 4CF42452054F59C5 electric_bike 2021-12-15 23:10:28 2021-12-15 23:23:14
##  4 3278BA87BF698339 classic_bike  2021-12-26 16:16:10 2021-12-26 16:30:53
##  5 6FF54232576A3B73 electric_bike 2021-12-30 11:31:05 2021-12-30 11:51:21
##  6 93E8D79490E3AB11 classic_bike  2021-12-01 18:28:36 2021-12-01 18:38:03
##  7 135518383C9CACF0 electric_bike 2021-12-09 15:49:51 2021-12-09 15:55:49
##  8 CDF93C212EA9B261 classic_bike  2021-12-31 13:02:08 2021-12-31 13:20:59
##  9 0FCA94C5F26535C8 electric_bike 2021-12-20 14:25:53 2021-12-20 14:35:48
## 10 8E913048B7BCAA47 classic_bike  2021-12-19 16:58:32 2021-12-19 17:15:01
## # ... with 247,530 more rows, and 9 more variables: start_station_name <chr>,
## #   start_station_id <chr>, end_station_name <chr>, end_station_id <chr>,
## #   start_lat <dbl>, start_lng <dbl>, end_lat <dbl>, end_lng <dbl>,
## #   member_casual <chr>
…
as_tibble(cyclist_2021_raw_data)

## # A tibble: 5,595,063 x 13
##    ride_id          rideable_type started_at          ended_at           
##    <chr>            <chr>         <dttm>              <dttm>             
##  1 E19E6F1B8D4C42ED electric_bike 2021-01-23 16:14:19 2021-01-23 16:24:44
##  2 DC88F20C2C55F27F electric_bike 2021-01-27 18:43:08 2021-01-27 18:47:12
##  3 EC45C94683FE3F27 electric_bike 2021-01-21 22:35:54 2021-01-21 22:37:14
##  4 4FA453A75AE377DB electric_bike 2021-01-07 13:31:13 2021-01-07 13:42:55
##  5 BE5E8EB4E7263A0B electric_bike 2021-01-23 02:24:02 2021-01-23 02:24:45
##  6 5D8969F88C773979 electric_bike 2021-01-09 14:24:07 2021-01-09 15:17:54
##  7 09275CC10F854E9E electric_bike 2021-01-04 05:05:04 2021-01-04 05:10:39
##  8 DF7A32A217AEFB14 electric_bike 2021-01-14 15:07:00 2021-01-14 15:13:40
##  9 C2EFC62379EB716C electric_bike 2021-01-09 09:57:55 2021-01-09 10:00:26
## 10 B9F73448DFBE0D45 classic_bike  2021-01-24 19:15:38 2021-01-24 19:22:51
## # ... with 5,595,053 more rows, and 9 more variables: start_station_name <chr>,
## #   start_station_id <chr>, end_station_name <chr>, end_station_id <chr>,
## #   start_lat <dbl>, start_lng <dbl>, end_lat <dbl>, end_lng <dbl>,
## #   member_casual <chr>
…
## [1] 5595063

if (cyclist_row == all_month_row){
  print("Data Merged Successful")
}else{
  print("There is a probelm with data merging")
}

## [1] "Data Merged Successful"

as_tibble(cyclist_2021_raw_data)

## # A tibble: 5,595,063 x 13
##    ride_id          rideable_type started_at          ended_at           
##    <chr>            <chr>         <dttm>              <dttm>             
##  1 E19E6F1B8D4C42ED electric_bike 2021-01-23 16:14:19 2021-01-23 16:24:44
##  2 DC88F20C2C55F27F electric_bike 2021-01-27 18:43:08 2021-01-27 18:47:12
##  3 EC45C94683FE3F27 electric_bike 2021-01-21 22:35:54 2021-01-21 22:37:14
##  4 4FA453A75AE377DB electric_bike 2021-01-07 13:31:13 2021-01-07 13:42:55
##  5 BE5E8EB4E7263A0B electric_bike 2021-01-23 02:24:02 2021-01-23 02:24:45
##  6 5D8969F88C773979 electric_bike 2021-01-09 14:24:07 2021-01-09 15:17:54
##  7 09275CC10F854E9E electric_bike 2021-01-04 05:05:04 2021-01-04 05:10:39
##  8 DF7A32A217AEFB14 electric_bike 2021-01-14 15:07:00 2021-01-14 15:13:40
##  9 C2EFC62379EB716C electric_bike 2021-01-09 09:57:55 2021-01-09 10:00:26
## 10 B9F73448DFBE0D45 classic_bike  2021-01-24 19:15:38 2021-01-24 19:22:51
## # ... with 5,595,053 more rows, and 9 more variables: start_station_name <chr>,
## #   start_station_id <chr>, end_station_name <chr>, end_station_id <chr>,
## #   start_lat <dbl>, start_lng <dbl>, end_lat <dbl>, end_lng <dbl>,
## #   member_casual <chr>
…
We use “drop_na()” functions to clean na value so that the na value cannot hamper in our analysis. Also, we add “distinct()” function to remove duplicate values and a new column “ride_length” by subtracting ‘started_at’ column value from ‘ended_at’ column. I also ensure that there is no negative value in our dataset by filter-out all the ‘started_at’ value which is greater than ‘ended_at’ value

cyclist_2021_cleaned_data <- cyclist_2021_raw_data %>%
  drop_na() %>% 
  filter(ended_at>started_at) %>% 
  distinct() %>% 
  mutate(ride_length=ended_at - started_at)
as_tibble(cyclist_2021_cleaned_data)

## # A tibble: 4,588,104 x 14
##    ride_id          rideable_type started_at          ended_at           
##    <chr>            <chr>         <dttm>              <dttm>             
##  1 B9F73448DFBE0D45 classic_bike  2021-01-24 19:15:38 2021-01-24 19:22:51
##  2 457C7F4B5D3DA135 electric_bike 2021-01-23 12:57:38 2021-01-23 13:02:10
##  3 57C750326F9FDABE electric_bike 2021-01-09 15:28:04 2021-01-09 15:37:51
##  4 4D518C65E338D070 electric_bike 2021-01-09 15:28:57 2021-01-09 15:37:54
##  5 9D08A3AFF410474D classic_bike  2021-01-24 15:56:59 2021-01-24 16:07:08
##  6 49FCE1F8598F12C6 electric_bike 2021-01-22 15:15:28 2021-01-22 15:36:01
##  7 0FEED5C2C8749A1C classic_bike  2021-01-05 10:33:12 2021-01-05 10:39:12
##  8 E276FD43BDED6420 classic_bike  2021-01-30 11:59:16 2021-01-30 12:03:44
##  9 88BFCF66C2D585EC electric_bike 2021-01-27 07:27:09 2021-01-27 07:45:32
## 10 8BD6F6510F5C8BD2 electric_bike 2021-01-15 08:54:41 2021-01-15 09:11:46
## # ... with 4,588,094 more rows, and 10 more variables:
## #   start_station_name <chr>, start_station_id <chr>, end_station_name <chr>,
## #   end_station_id <chr>, start_lat <dbl>, start_lng <dbl>, end_lat <dbl>,
## #   end_lng <dbl>, member_casual <chr>, ride_length <drtn>
…
